<svg width="70" height="70" viewBox="0 0 70 70" fill="none" xmlns="http://www.w3.org/2000/svg">
<path d="M6 35C6 18.9837 18.9837 6 35 6C51.0163 6 64 18.9837 64 35C64 51.0163 51.0163 64 35 64C18.9837 64 6 51.0163 6 35Z" fill="#112340"/>
<path d="M37.9167 20.4167H32.0833V32.0834H20.4167V37.9167H32.0833V49.5834H37.9167V37.9167H49.5833V32.0834H37.9167V20.4167ZM35 5.83337C18.9 5.83337 5.83333 18.9 5.83333 35C5.83333 51.1 18.9 64.1667 35 64.1667C51.1 64.1667 64.1667 51.1 64.1667 35C64.1667 18.9 51.1 5.83337 35 5.83337ZM35 58.3334C22.1375 58.3334 11.6667 47.8625 11.6667 35C11.6667 22.1375 22.1375 11.6667 35 11.6667C47.8625 11.6667 58.3333 22.1375 58.3333 35C58.3333 47.8625 47.8625 58.3334 35 58.3334Z" fill="#0BCAD4"/>
</svg>
